…
`all_data` contains all information in that file, including experimental
setting, melting curve data, and so on.

``` r
all_data
#> An object of class 'QuantStudioRaw':
#>    Slots: [Sample Setup], [Raw Data], [Amplification Data], [Multicomponent Data], [Results], [Reagent Information], [Melt Curve Raw Data], Meta;
```

We use `get_quantstudio_melting_curve()` to get melting curve dataset.

``` r
melting_curve_data = get_quantstudio_melting_curve(all_data)
melting_curve_data
#> # A tibble: 88,854 × 6
#>    well  well_position reading temperature fluorescence derivative
#>    <chr> <chr>           <dbl>       <dbl>        <dbl>      <dbl>
#>  1 1     A1                  1        75.1         1.60      0.043
#>  2 1     A1                  2        75.1         1.60      0.037
#>  3 1     A1                  3        75.2         1.60      0.032
#>  4 1     A1                  4        75.3         1.61      0.029
#>  5 1     A1                  5        75.4         1.61      0.027
#>  6 1     A1                  6        75.5         1.60      0.028
#>  7 1     A1                  7        75.5         1.60      0.031
#>  8 1     A1                  8        75.6         1.59      0.036
#>  9 1     A1                  9        75.7         1.59      0.041
#> 10 1     A1                 10        75.8         1.59      0.046
#> # ℹ 88,844 more rows
```
…
Plate.

``` r
file =  system.file("quantstudio", "quantstudio-plate.csv.gz", package = 'mcmodel')
concentration = read_csv(file)
#> Rows: 352 Columns: 3
#> ── Column specification ────────────────────────────────────────────────────────
#> Delimiter: ","
#> chr (1): well_position
#> dbl (2): label_E, label_P
#> 
#> ℹ Use `spec()` to retrieve the full column specification for this data.
#> ℹ Specify the column types or set `show_col_types = FALSE` to quiet this message.
concentration
#> # A tibble: 352 × 3
#>    well_position label_E label_P
#>    <chr>           <dbl>   <dbl>
#>  1 A1                  1   0    
#>  2 A2                  1   0    
#>  3 A3                  1   0    
#>  4 A4                  0   1    
#>  5 A5                  0   1    
#>  6 A6                  0   1    
#>  7 A7                  1   1    
#>  8 A8                  1   0.5  
#>  9 A9                  1   0.25 
#> 10 A10                 1   0.125
#> # ℹ 342 more rows
```
…
